<?xml version="1.0" encoding="UTF-8" standalone="no"?>
<!-- Created with Inkscape (http://www.inkscape.org/) -->

<svg
   xmlns:dc="http://purl.org/dc/elements/1.1/"
   xmlns:cc="http://creativecommons.org/ns#"
   xmlns:rdf="http://www.w3.org/1999/02/22-rdf-syntax-ns#"
   xmlns:svg="http://www.w3.org/2000/svg"
   xmlns="http://www.w3.org/2000/svg"
   xmlns:sodipodi="http://sodipodi.sourceforge.net/DTD/sodipodi-0.dtd"
   xmlns:inkscape="http://www.inkscape.org/namespaces/inkscape"
   width="21.467825mm"
   height="3.1897748mm"
   viewBox="0 0 76.067096 11.302351"
   id="svg4062"
   version="1.1"
   inkscape:version="0.91 r13725"
   sodipodi:docname="excursion-fleuve.svg">
  <defs
     id="defs4064" />
  <sodipodi:namedview
     id="base"
     pagecolor="#ffffff"
     bordercolor="#666666"
     borderopacity="1.0"
     inkscape:pageopacity="0.0"
     inkscape:pageshadow="2"
     inkscape:zoom="0.24748737"
     inkscape:cx="-1031.5665"
     inkscape:cy="-119.51493"
     inkscape:document-units="px"
     inkscape:current-layer="layer1"
     showgrid="false"
     fit-margin-top="0"
     fit-margin-left="0"
     fit-margin-right="0"
     fit-margin-bottom="0"
     inkscape:window-width="1366"
     inkscape:window-height="669"
     inkscape:window-x="1600"
     inkscape:window-y="28"
     inkscape:window-maximized="1" />
  <metadata
     id="metadata4067">
    <rdf:RDF>
      <cc:Work
         rdf:about="">
        <dc:format>image/svg+xml</dc:format>
        <dc:type
           rdf:resource="http://purl.org/dc/dcmitype/StillImage" />
        <dc:title />
      </cc:Work>
    </rdf:RDF>
  </metadata>
  <g
     inkscape:label="Layer 1"
     inkscape:groupmode="layer"
     id="layer1"
     transform="translate(-359.10931,-423.85389)">
    <path
       style="display:inline;fill:#008080"
       d="m 368.66778,434.37379 c -0.55225,-0.6654 -0.58067,-1.3596 -0.11082,-2.7074 0.67472,-1.9355 0.1219,-2.3917 -1.10572,-0.9125 -1.67985,2.0241 -3.69438,0.3186 -2.42509,-2.0531 0.44407,-0.8298 0.45953,-1.2469 0.0462,-1.2469 -0.34161,0 -0.62111,0.2605 -0.62111,0.5789 0,0.3184 -0.56899,0.8834 -1.26442,1.2556 -2.0242,1.0833 -2.83957,-0.2193 -1.52755,-2.4404 0.82086,-1.3896 0.8763,-1.7941 0.24589,-1.7941 -0.44766,0 -1.13342,0.3195 -1.52392,0.71 -0.3905,0.3905 -0.91658,0.5034 -1.16906,0.2509 -0.59869,-0.5986 1.55033,-2.1609 2.97257,-2.1609 1.349,0 2.07801,1.6285 1.14616,2.5603 -0.37382,0.3738 -0.67967,0.9256 -0.67967,1.2262 0,0.3005 0.49795,-0.068 1.10654,-0.8201 0.70796,-0.8743 1.46441,-1.2292 2.1,-0.9853 1.08648,0.4169 1.35257,2.5261 0.39346,3.1189 -0.33,0.204 -0.6,0.672 -0.6,1.04 0,0.368 0.6249,0.082 1.38867,-0.6354 2.46524,-2.316 4.03291,-1.2176 2.81903,1.9751 -0.94775,2.4928 -0.34137,2.4849 1.13343,-0.015 1.07028,-1.8139 1.44049,-2.0612 2.17439,-1.4521 0.48646,0.4037 0.88448,1.511 0.88448,2.4606 0,1.1347 0.30851,1.7265 0.9,1.7265 0.58639,0 0.9,-0.5872 0.9,-1.6853 0,-0.9269 0.37578,-2.1992 0.83507,-2.8274 0.70952,-0.9703 0.98016,-1.0216 1.8,-0.3412 0.53071,0.4405 0.96493,1.3237 0.96493,1.9628 0,0.6391 0.27,0.9951 0.6,0.7911 0.33,-0.2039 0.6,-1.1649 0.6,-2.1354 0,-1.3314 0.27886,-1.7646 1.13581,-1.7646 0.62469,0 1.29121,0.405 1.48117,0.9 0.5561,1.4492 1.4876,1.0366 1.69317,-0.75 0.13655,-1.1867 0.52679,-1.65 1.38985,-1.65 0.86306,0 1.2533,0.4633 1.38985,1.65 0.22775,1.9793 0.92647,2.1006 2.13786,0.3711 0.9832,-1.4037 2.77229,-1.1713 2.77229,0.3601 0,0.6291 0.59125,0.9188 1.875,0.9188 1.77013,0 1.85453,0.1023 1.50904,1.8298 -0.22698,1.1349 -0.14152,1.6911 0.225,1.4646 0.32503,-0.2009 0.59096,-0.7254 0.59096,-1.1656 0,-1.1998 1.60955,-1.5812 2.44163,-0.5786 0.96353,1.1609 1.45837,0.5711 1.45837,-1.7385 0,-2.6359 1.76719,-2.8938 3.15239,-0.4599 1.40348,2.4659 2.43461,2.3282 2.66139,-0.3554 0.24872,-2.9433 1.32388,-3.1377 3.00479,-0.5434 1.56576,2.4167 2.93834,2.8182 2.72436,0.797 -0.11322,-1.0693 0.19906,-1.3894 1.502,-1.5394 1.28063,-0.1474 1.80026,0.1516 2.34631,1.35 0.88255,1.937 1.33528,1.9363 2.21905,0 0.41928,-0.9202 1.09799,-1.465 1.682,-1.35 0.82605,0.1626 1.25868,0.6638 2.42694,2.8119 0.0656,0.1206 0.76386,-0.5302 1.55173,-1.4461 1.63788,-1.9042 2.82904,-1.5748 2.82904,0.7823 0,1.2325 0.16,1.4246 0.72,0.8646 1.32928,-1.3293 2.88,-0.8592 2.88,0.873 0,1.5052 0.0604,1.5383 1.09724,0.6 0.60349,-0.5462 1.75099,-0.9848 2.55,-0.9748 1.38583,0.017 1.39747,0.049 0.25276,0.6804 -0.66,0.3641 -1.92056,1.3304 -2.80124,2.1473 -1.98015,1.8366 -3.15746,1.2976 -2.65481,-1.2156 0.35498,-1.7749 0.3333,-1.7957 -0.80175,-0.7685 -1.41675,1.2821 -2.4422,0.7794 -2.4422,-1.1972 0,-0.8055 -0.27,-1.4646 -0.6,-1.4646 -0.33,0 -0.6,0.2507 -0.6,0.5571 0,0.3065 -0.43361,0.9908 -0.96357,1.5208 -1.14817,1.1481 -2.63643,0.2724 -2.63643,-1.5514 0,-1.6214 -1.13075,-1.3868 -1.8,0.3735 -0.31366,0.825 -0.97576,1.5 -1.47132,1.5 -0.49556,0 -1.34329,-0.675 -1.88386,-1.5 -1.17934,-1.7999 -2.04482,-1.9358 -2.04482,-0.3211 0,1.3053 -1.81808,2.5682 -2.77751,1.9292 -0.33708,-0.2244 -1.11457,-1.2709 -1.72777,-2.3255 -1.19374,-2.0529 -2.18548,-2.1593 -1.66758,-0.1788 0.64556,2.4686 -2.94529,4.2596 -3.70994,1.8504 -0.20002,-0.6302 -0.80174,-1.5077 -1.33715,-1.95 -0.86496,-0.7145 -0.93855,-0.6203 -0.6601,0.8451 0.17235,0.9071 -0.0377,2.1221 -0.46674,2.7 -0.64905,0.8742 -0.98199,0.9275 -1.98158,0.3175 -1.02785,-0.6272 -1.25571,-0.5622 -1.57697,0.45 -0.20654,0.6508 -0.86845,1.1832 -1.4709,1.1832 -1.23738,0 -1.95835,-1.3511 -1.44074,-2.7 0.37662,-0.9814 -0.69183,-1.2566 -1.26683,-0.3262 -0.58662,0.9492 -2.11619,-0.013 -2.11619,-1.331 0,-1.175 -0.0506,-1.183 -1.15536,-0.1832 -1.63633,1.4809 -3.26152,0.9709 -3.71903,-1.1669 -0.27965,-1.3068 -0.40287,-1.4401 -0.45462,-0.4918 -0.11678,2.14 -0.73619,3.1991 -1.87099,3.1991 -0.58939,0 -1.22702,-0.405 -1.41698,-0.9 -0.18995,-0.495 -0.61536,-0.9 -0.94536,-0.9 -0.33,0 -0.46751,0.3452 -0.30559,0.7672 0.16192,0.422 -0.0873,1.2893 -0.5539,1.9274 -0.72126,0.9863 -0.99285,1.0402 -1.81324,0.3593 -0.53071,-0.4405 -0.96493,-1.1728 -0.96493,-1.6274 0,-0.4546 -0.27,-0.8265 -0.6,-0.8265 -0.33,0 -0.6,0.7769 -0.6,1.7265 0,1.9428 -1.33639,3.3798 -2.66789,2.8688 -0.48575,-0.1864 -1.12898,-1.2291 -1.4294,-2.3171 l -0.54623,-1.9782 -0.61574,1.5247 c -0.94434,2.3383 -2.21513,3.1906 -3.1242,2.0952 z"
       id="path4419-5"
       inkscape:connector-curvature="0"
       sodipodi:nodetypes="csscsscssscssscccscsccsssccscsscssssssscscscsccccccccsssccccssssscsssssccsscccccscssscsscssccssscscccc"
       inkscape:export-xdpi="90"
       inkscape:export-ydpi="90" />
  </g>
</svg>
