<?xml version="1.0" encoding="UTF-8" standalone="no"?>
<!-- Created with Inkscape (http://www.inkscape.org/) -->

<svg
   xmlns:dc="http://purl.org/dc/elements/1.1/"
   xmlns:cc="http://creativecommons.org/ns#"
   xmlns:rdf="http://www.w3.org/1999/02/22-rdf-syntax-ns#"
   xmlns:svg="http://www.w3.org/2000/svg"
   xmlns="http://www.w3.org/2000/svg"
   xmlns:sodipodi="http://sodipodi.sourceforge.net/DTD/sodipodi-0.dtd"
   xmlns:inkscape="http://www.inkscape.org/namespaces/inkscape"
   id="svg2"
   version="1.1"
   inkscape:version="0.91 r13725"
   xml:space="preserve"
   width="143.94673"
   height="67.17514"
   viewBox="0 0 143.94674 67.17514"
   sodipodi:docname="code-barre.svg"><metadata
     id="metadata8"><rdf:RDF><cc:Work
         rdf:about=""><dc:format>image/svg+xml</dc:format><dc:type
           rdf:resource="http://purl.org/dc/dcmitype/StillImage" /><dc:title></dc:title></cc:Work></rdf:RDF></metadata><defs
     id="defs6" /><sodipodi:namedview
     pagecolor="#ffffff"
     bordercolor="#666666"
     borderopacity="1"
     objecttolerance="10"
     gridtolerance="10"
     guidetolerance="10"
     inkscape:pageopacity="0"
     inkscape:pageshadow="2"
     inkscape:window-width="1174"
     inkscape:window-height="785"
     id="namedview4"
     showgrid="false"
     fit-margin-top="0"
     fit-margin-left="0"
     fit-margin-right="0"
     fit-margin-bottom="0"
     inkscape:zoom="2.4789917"
     inkscape:cx="93.37782"
     inkscape:cy="44.075747"
     inkscape:window-x="0"
     inkscape:window-y="0"
     inkscape:window-maximized="0"
     inkscape:current-layer="g10" /><g
     id="g10"
     inkscape:groupmode="layer"
     inkscape:label="ink_ext_XXXXXX"
     transform="matrix(1.25,0,0,-1.25,25.583538,70.699395)"><g
       style="display:inline"
       id="g3851"
       transform="matrix(0.8,0,0,-0.8,-589.38475,3533.331)"><rect
         y="4345.9644"
         x="711.1474"
         height="67.17514"
         width="143.94673"
         id="rect3849"
         style="fill:#ffffff;stroke-width:1.5;stroke-miterlimit:4;stroke-dasharray:none" /><g
         transform="translate(1.2627107,-0.05967434)"
         id="g3790"><path
           inkscape:connector-curvature="0"
           id="path14"
           style="fill:#231f20;fill-opacity:1;fill-rule:nonzero;stroke:none"
           d="m 736.56668,4401.7787 0,-0.069 -3.8135,0 0,-0.7954 4.71774,0 0,0.8252 -3.17137,6.3032 -0.93413,0 3.20126,-6.2636" /><path
           inkscape:connector-curvature="0"
           id="path16"
           style="fill:#231f20;fill-opacity:1;fill-rule:nonzero;stroke:none"
           d="m 744.67792,4402.7318 c 0,-0.7359 -0.55812,-1.2251 -1.40275,-1.2251 -0.84474,0 -1.40287,0.4892 -1.40287,1.2251 0,0.7261 0.563,1.2104 1.40287,1.2104 0.83975,0 1.40275,-0.4843 1.40275,-1.2104 z m 0.26713,3.3393 c 0,-0.8149 -0.68163,-1.3779 -1.66988,-1.3779 -0.98787,0 -1.66949,0.563 -1.66949,1.3779 0,0.8155 0.68162,1.3785 1.66949,1.3785 0.98825,0 1.66988,-0.563 1.66988,-1.3785 z m -4.23875,0.064 c 0,-0.9287 0.58787,-1.6499 1.48187,-1.8179 l 0,-0.079 c -0.726,-0.1977 -1.19037,-0.8154 -1.19037,-1.5908 0,-1.1113 0.94388,-1.9019 2.27737,-1.9019 1.33388,0 2.27725,0.7906 2.27725,1.9019 0,0.7808 -0.45399,1.3882 -1.19037,1.5908 l 0,0.079 c 0.894,0.168 1.48188,0.8892 1.48188,1.8179 0,1.2202 -1.05713,2.0747 -2.56876,2.0747 -1.51175,0 -2.56887,-0.8545 -2.56887,-2.0747" /><path
           inkscape:connector-curvature="0"
           id="path18"
           style="fill:#231f20;fill-opacity:1;fill-rule:nonzero;stroke:none"
           d="m 753.04168,4403.201 c 0,-0.9531 -0.69676,-1.6748 -1.61076,-1.6748 -0.91362,0 -1.61037,0.7114 -1.61037,1.645 0,0.9737 0.65725,1.6455 1.60062,1.6455 0.94375,0 1.62051,-0.6718 1.62051,-1.6157 z m -4.01651,3.1421 0.914,0 c 0.19288,0.667 0.731,1.0718 1.43263,1.0718 1.16062,0 1.81787,-1.0274 1.86725,-2.9243 l -0.0791,0 c -0.35063,0.6914 -1.04688,1.0966 -1.89651,1.0966 -1.35887,0 -2.34187,-1.0029 -2.34187,-2.3862 0,-1.4326 1.03712,-2.4551 2.49962,-2.4551 1.06738,0 1.892,0.5679 2.33688,1.6202 0.23187,0.5434 0.34562,1.2006 0.34562,1.9863 0,2.4502 -0.99799,3.853 -2.74162,3.853 -1.2105,0 -2.10938,-0.7163 -2.33688,-1.8623" /><path
           inkscape:connector-curvature="0"
           id="path20"
           style="fill:#231f20;fill-opacity:1;fill-rule:nonzero;stroke:none"
           d="m 761.57293,4404.4559 c 0,-1.7734 -0.72113,-2.9243 -1.82813,-2.9243 -1.1015,0 -1.82762,1.1557 -1.82762,2.9194 0,1.8032 0.71637,2.9688 1.82762,2.9688 1.11187,0 1.82813,-1.1656 1.82813,-2.9639 z m -4.54975,0 c 0,-2.2529 1.06687,-3.7051 2.72162,-3.7051 1.66025,0 2.72225,1.4522 2.72225,3.7149 0,2.2773 -1.062,3.73 -2.72225,3.73 -1.65962,0 -2.72162,-1.4625 -2.72162,-3.7398" /><path
           inkscape:connector-curvature="0"
           id="path22"
           style="fill:#231f20;fill-opacity:1;fill-rule:nonzero;stroke:none"
           d="m 769.50605,4401.7787 0,-0.069 -3.8135,0 0,-0.7954 4.71788,0 0,0.8252 -3.17138,6.3032 -0.93362,0 3.20062,-6.2636" /><path
           inkscape:connector-curvature="0"
           id="path24"
           style="fill:#231f20;fill-opacity:1;fill-rule:nonzero;stroke:none"
           d="m 776.32343,4401.9017 -0.0791,0 -1.81288,1.3145 0,-0.939 1.89688,-1.3633 0.88437,0 0,7.1284 -0.88924,0 0,-6.1406" /><path
           inkscape:connector-curvature="0"
           id="path26"
           style="fill:#231f20;fill-opacity:1;fill-rule:nonzero;stroke:none"
           d="m 790.73167,4403.9964 0.86475,0 c 0.81001,0 1.38276,-0.5234 1.38276,-1.2646 0,-0.7261 -0.54826,-1.2105 -1.36813,-1.2105 -0.82025,0 -1.35838,0.4546 -1.43262,1.2202 l -0.86476,0 c 0.0894,-1.2348 0.97313,-1.9956 2.332,-1.9956 1.24463,0 2.23788,0.8301 2.23788,1.8672 0,0.8496 -0.46925,1.4722 -1.25,1.6602 l 0,0.079 c 0.96825,0.123 1.55612,0.7949 1.55612,1.768 0,1.1758 -1.10162,2.0899 -2.50924,2.0899 -1.44776,0 -2.44588,-0.8052 -2.50976,-2.0254 l 0.85938,0 c 0.079,0.7607 0.72112,1.25 1.64012,1.25 0.9385,0 1.60538,-0.5586 1.60538,-1.3389 0,-0.8252 -0.62687,-1.3388 -1.64013,-1.3388 l -0.90375,0 0,-0.7608" /><path
           inkscape:connector-curvature="0"
           id="path28"
           style="fill:#231f20;fill-opacity:1;fill-rule:nonzero;stroke:none"
           d="m 798.20092,4405.7747 2.56888,0 0,-4.0356 -0.0596,0 c -0.731,1.062 -1.65963,2.5342 -2.50926,3.9766 l 0,0.059 z m 2.564,0.7906 -3.47325,0 0,-0.8101 c 0.63725,-1.1313 1.76863,-2.9194 3.05325,-4.8413 l 1.28913,0 0,4.856 1.01262,0 0,0.7954 -1.01262,0 0,1.477 -0.86913,0 0,-1.477" /><path
           inkscape:connector-curvature="0"
           id="path30"
           style="fill:#231f20;fill-opacity:1;fill-rule:nonzero;stroke:none"
           d="m 809.84442,4405.7796 c 0,-0.9731 -0.65724,-1.645 -1.6005,-1.645 -0.94387,0 -1.62062,0.6719 -1.62062,1.6157 0,0.9532 0.69675,1.6744 1.61075,1.6744 0.91362,0 1.61037,-0.7115 1.61037,-1.6451 z m -3.9375,0.8052 c -0.23187,-0.543 -0.34562,-1.2002 -0.34562,-1.9858 0,-2.4502 0.998,-3.8531 2.74162,-3.8531 1.2105,0 2.10938,0.7163 2.337,1.8623 l -0.91412,0 c -0.19288,-0.6669 -0.731,-1.0717 -1.43262,-1.0717 -1.16113,0 -1.81788,1.0273 -1.86713,2.9243 l 0.0786,0 c 0.351,-0.6914 1.04724,-1.0967 1.89687,-1.0967 1.35887,0 2.34187,1.0029 2.34187,2.3862 0,1.4327 -1.03712,2.4551 -2.4995,2.4551 -1.07237,0 -1.89212,-0.5732 -2.337,-1.6206" /><path
           inkscape:connector-curvature="0"
           id="path32"
           style="fill:#231f20;fill-opacity:1;fill-rule:nonzero;stroke:none"
           d="m 814.67067,4405.7747 2.56875,0 0,-4.0356 -0.0595,0 c -0.731,1.062 -1.65963,2.5342 -2.50926,3.9766 l 0,0.059 z m 2.56338,0.7906 -3.47262,0 0,-0.8101 c 0.63725,-1.1313 1.76862,-2.9194 3.05324,-4.8413 l 1.28901,0 0,4.856 1.01275,0 0,0.7954 -1.01275,0 0,1.477 -0.86963,0 0,-1.477" /><path
           inkscape:connector-curvature="0"
           id="path34"
           style="fill:#231f20;fill-opacity:1;fill-rule:nonzero;stroke:none"
           d="m 826.31367,4405.7796 c 0,-0.9731 -0.65675,-1.645 -1.60062,-1.645 -0.94325,0 -1.62,0.6719 -1.62,1.6157 0,0.9532 0.69675,1.6744 1.61025,1.6744 0.91413,0 1.61037,-0.7115 1.61037,-1.6451 z m -3.937,0.8052 c -0.23187,-0.543 -0.34574,-1.2002 -0.34574,-1.9858 0,-2.4502 0.99812,-3.8531 2.74175,-3.8531 1.21049,0 2.10937,0.7163 2.33637,1.8623 l -0.9135,0 c -0.19288,-0.6669 -0.7315,-1.0717 -1.43263,-1.0717 -1.16112,0 -1.81787,1.0273 -1.86762,2.9243 l 0.079,0 c 0.35112,-0.6914 1.04737,-1.0967 1.897,-1.0967 1.35838,0 2.34175,1.0029 2.34175,2.3862 0,1.4327 -1.0375,2.4551 -2.5,2.4551 -1.07175,0 -1.8915,-0.5732 -2.33638,-1.6206" /><path
           inkscape:connector-curvature="0"
           id="path36"
           style="fill:#231f20;fill-opacity:1;fill-rule:nonzero;stroke:none"
           d="m 834.6823,4404.4559 c 0,-1.7734 -0.72112,-2.9243 -1.82812,-2.9243 -1.10151,0 -1.82763,1.1557 -1.82763,2.9194 0,1.8032 0.71638,2.9688 1.82763,2.9688 1.11187,0 1.82812,-1.1656 1.82812,-2.9639 z m -4.54975,0 c 0,-2.2529 1.06688,-3.7051 2.72163,-3.7051 1.66025,0 2.72224,1.4522 2.72224,3.7149 0,2.2773 -1.06199,3.73 -2.72224,3.73 -1.65963,0 -2.72163,-1.4625 -2.72163,-3.7398" /><path
           inkscape:connector-curvature="0"
           id="path38"
           style="fill:#231f20;fill-opacity:1;fill-rule:nonzero;stroke:none"
           d="m 718.99191,4403.201 c 0,-0.9531 -0.69677,-1.6748 -1.61035,-1.6748 -0.91406,0 -1.61083,0.7114 -1.61083,1.645 0,0.9737 0.65722,1.6455 1.60058,1.6455 0.94385,0 1.6206,-0.6718 1.6206,-1.6157 z m -4.01659,3.1421 0.91406,0 c 0.19287,0.667 0.73096,1.0718 1.43262,1.0718 1.16112,0 1.81786,-1.0274 1.86719,-2.9243 l -0.0786,0 c -0.35108,0.6914 -1.04737,1.0966 -1.89698,1.0966 -1.35889,0 -2.3418,-1.0029 -2.3418,-2.3862 0,-1.4326 1.0376,-2.4551 2.49951,-2.4551 1.06739,0 1.89209,0.5679 2.33691,1.6202 0.23194,0.5434 0.34571,1.2006 0.34571,1.9863 0,2.4502 -0.99804,3.853 -2.74171,3.853 -1.21044,0 -2.10937,-0.7163 -2.3369,-1.8623" /><path
           inkscape:connector-curvature="0"
           id="path40"
           style="fill:#231f20;fill-opacity:1;fill-rule:nonzero;stroke:none"
           d="m 847.9943,4404.1351 0,-0.079 -3.4975,-1.9067 0,-0.918 4.3475,2.5132 0,0.7021 -4.3475,2.5147 0,-0.9195 3.4975,-1.9067" /><path
           inkscape:connector-curvature="0"
           id="path42"
           style="fill:#231f20;fill-opacity:1;fill-rule:nonzero;stroke:none"
           d="m 726.23117,4400.2435 1.20508,0 0,-40.5498 -1.20508,0 z"
           sodipodi:nodetypes="ccccc" /><path
           inkscape:connector-curvature="0"
           id="path44"
           style="fill:#231f20;fill-opacity:1;fill-rule:nonzero;stroke:none"
           d="m 728.6413,4400.2435 1.20508,0 0,-40.5498 -1.20508,0 z"
           sodipodi:nodetypes="ccccc" /><path
           inkscape:connector-curvature="0"
           id="path46"
           style="fill:#231f20;fill-opacity:1;fill-rule:nonzero;stroke:none"
           d="m 731.05155,4394.1258 3.61524,0 0,-34.4321 -3.61524,0 z"
           sodipodi:nodetypes="ccccc" /><path
           inkscape:connector-curvature="0"
           id="path48"
           style="fill:#231f20;fill-opacity:1;fill-rule:nonzero;stroke:none"
           d="m 735.8718,4394.1258 2.41016,0 0,-34.4321 -2.41016,0 z"
           sodipodi:nodetypes="ccccc" /><path
           inkscape:connector-curvature="0"
           id="path50"
           style="fill:#231f20;fill-opacity:1;fill-rule:nonzero;stroke:none"
           d="m 741.89718,4394.1258 1.20556,0 0,-34.4321 -1.20556,0 z"
           sodipodi:nodetypes="ccccc" /><path
           inkscape:connector-curvature="0"
           id="path52"
           style="fill:#231f20;fill-opacity:1;fill-rule:nonzero;stroke:none"
           d="m 745.51292,4394.1258 1.20508,0 0,-34.4321 -1.20508,0 z"
           sodipodi:nodetypes="ccccc" /><path
           inkscape:connector-curvature="0"
           id="path54"
           style="fill:#231f20;fill-opacity:1;fill-rule:nonzero;stroke:none"
           d="m 749.12818,4394.1258 1.20507,0 0,-34.4321 -1.20507,0 z"
           sodipodi:nodetypes="ccccc" /><path
           inkscape:connector-curvature="0"
           id="path56"
           style="fill:#231f20;fill-opacity:1;fill-rule:nonzero;stroke:none"
           d="m 751.5383,4394.1258 3.61524,0 0,-34.4321 -3.61524,0 z"
           sodipodi:nodetypes="ccccc" /><path
           inkscape:connector-curvature="0"
           id="path58"
           style="fill:#231f20;fill-opacity:1;fill-rule:nonzero;stroke:none"
           d="m 758.7688,4394.1258 2.41016,0 0,-34.4321 -2.41016,0 z"
           sodipodi:nodetypes="ccccc" /><path
           inkscape:connector-curvature="0"
           id="path60"
           style="fill:#231f20;fill-opacity:1;fill-rule:nonzero;stroke:none"
           d="m 762.38405,4394.1258 1.20508,0 0,-34.4321 -1.20508,0 z"
           sodipodi:nodetypes="ccccc" /><path
           inkscape:connector-curvature="0"
           id="path62"
           style="fill:#231f20;fill-opacity:1;fill-rule:nonzero;stroke:none"
           d="m 765.9993,4394.1258 1.20508,0 0,-34.4321 -1.20508,0 z"
           sodipodi:nodetypes="ccccc" /><path
           inkscape:connector-curvature="0"
           id="path64"
           style="fill:#231f20;fill-opacity:1;fill-rule:nonzero;stroke:none"
           d="m 770.82005,4394.1258 1.20508,0 0,-34.4321 -1.20508,0 z"
           sodipodi:nodetypes="ccccc" /><path
           inkscape:connector-curvature="0"
           id="path66"
           style="fill:#231f20;fill-opacity:1;fill-rule:nonzero;stroke:none"
           d="m 774.4353,4394.1258 2.41016,0 0,-34.4321 -2.41016,0 z"
           sodipodi:nodetypes="ccccc" /><path
           inkscape:connector-curvature="0"
           id="path68"
           style="fill:#231f20;fill-opacity:1;fill-rule:nonzero;stroke:none"
           d="m 779.25555,4394.1258 1.20508,0 0,-34.4321 -1.20508,0 z"
           sodipodi:nodetypes="ccccc" /><path
           inkscape:connector-curvature="0"
           id="path70"
           style="fill:#231f20;fill-opacity:1;fill-rule:nonzero;stroke:none"
           d="m 781.6658,4400.2435 1.20508,0 0,-40.5498 -1.20508,0 z"
           sodipodi:nodetypes="ccccc" /><path
           inkscape:connector-curvature="0"
           id="path72"
           style="fill:#231f20;fill-opacity:1;fill-rule:nonzero;stroke:none"
           d="m 784.07592,4400.2435 1.20508,0 0,-40.5498 -1.20508,0 z"
           sodipodi:nodetypes="ccccc" /><path
           inkscape:connector-curvature="0"
           id="path74"
           style="fill:#231f20;fill-opacity:1;fill-rule:nonzero;stroke:none"
           d="m 786.48605,4394.1258 1.20508,0 0,-34.4321 -1.20508,0 z"
           sodipodi:nodetypes="ccccc" /><path
           inkscape:connector-curvature="0"
           id="path76"
           style="fill:#231f20;fill-opacity:1;fill-rule:nonzero;stroke:none"
           d="m 792.51143,4394.1258 1.20556,0 0,-34.4321 -1.20556,0 z"
           sodipodi:nodetypes="ccccc" /><path
           inkscape:connector-curvature="0"
           id="path78"
           style="fill:#231f20;fill-opacity:1;fill-rule:nonzero;stroke:none"
           d="m 794.92205,4394.1258 1.20459,0 0,-34.4321 -1.20459,0 z"
           sodipodi:nodetypes="ccccc" /><path
           inkscape:connector-curvature="0"
           id="path80"
           style="fill:#231f20;fill-opacity:1;fill-rule:nonzero;stroke:none"
           d="m 797.3323,4394.1258 3.61524,0 0,-34.4321 -3.61524,0 z"
           sodipodi:nodetypes="ccccc" /><path
           inkscape:connector-curvature="0"
           id="path82"
           style="fill:#231f20;fill-opacity:1;fill-rule:nonzero;stroke:none"
           d="m 803.35767,4394.1258 1.20508,0 0,-34.4321 -1.20508,0 z"
           sodipodi:nodetypes="ccccc" /><path
           inkscape:connector-curvature="0"
           id="path84"
           style="fill:#231f20;fill-opacity:1;fill-rule:nonzero;stroke:none"
           d="m 805.7678,4394.1258 1.20508,0 0,-34.4321 -1.20508,0 z"
           sodipodi:nodetypes="ccccc" /><path
           inkscape:connector-curvature="0"
           id="path86"
           style="fill:#231f20;fill-opacity:1;fill-rule:nonzero;stroke:none"
           d="m 811.79318,4394.1258 1.20507,0 0,-34.4321 -1.20507,0 z"
           sodipodi:nodetypes="ccccc" /><path
           inkscape:connector-curvature="0"
           id="path88"
           style="fill:#231f20;fill-opacity:1;fill-rule:nonzero;stroke:none"
           d="m 814.2033,4394.1258 3.61524,0 0,-34.4321 -3.61524,0 z"
           sodipodi:nodetypes="ccccc" /><path
           inkscape:connector-curvature="0"
           id="path90"
           style="fill:#231f20;fill-opacity:1;fill-rule:nonzero;stroke:none"
           d="m 820.22868,4394.1258 1.20556,0 0,-34.4321 -1.20556,0 z"
           sodipodi:nodetypes="ccccc" /><path
           inkscape:connector-curvature="0"
           id="path92"
           style="fill:#231f20;fill-opacity:1;fill-rule:nonzero;stroke:none"
           d="m 822.63942,4394.1258 1.20508,0 0,-34.4321 -1.20508,0 z"
           sodipodi:nodetypes="ccccc" /><path
           inkscape:connector-curvature="0"
           id="path94"
           style="fill:#231f20;fill-opacity:1;fill-rule:nonzero;stroke:none"
           d="m 828.6648,4394.1258 3.61524,0 0,-34.4321 -3.61524,0 z"
           sodipodi:nodetypes="ccccc" /><path
           inkscape:connector-curvature="0"
           id="path96"
           style="fill:#231f20;fill-opacity:1;fill-rule:nonzero;stroke:none"
           d="m 834.69017,4394.1258 1.20508,0 0,-34.4321 -1.20508,0 z"
           sodipodi:nodetypes="ccccc" /><path
           inkscape:connector-curvature="0"
           id="path98"
           style="fill:#231f20;fill-opacity:1;fill-rule:nonzero;stroke:none"
           d="m 837.1003,4400.2435 1.20508,0 0,-40.5498 -1.20508,0 z"
           sodipodi:nodetypes="ccccc" /><path
           inkscape:connector-curvature="0"
           id="path100"
           style="fill:#231f20;fill-opacity:1;fill-rule:nonzero;stroke:none"
           d="m 839.51043,4400.2435 1.20507,0 0,-40.5498 -1.20507,0 z"
           sodipodi:nodetypes="ccccc" /><path
           inkscape:connector-curvature="0"
           id="path102"
           style="fill:#231f20;fill-opacity:1;fill-rule:nonzero;stroke:none"
           d="m 727.35227,4356.9007 0.7168,0 0,-5.7525 -0.7168,0 0,5.7525 z" /><path
           inkscape:connector-curvature="0"
           id="path104"
           style="fill:#231f20;fill-opacity:1;fill-rule:nonzero;stroke:none"
           d="m 730.3078,4355.3983 c 0.0875,0.6015 0.66162,0.9844 1.479,0.9844 0.7735,0 1.34325,-0.4185 1.34325,-0.9888 0,-0.4902 -0.35888,-0.8012 -1.15225,-1.0005 l -0.73738,-0.1914 c -1.0405,-0.2632 -1.49074,-0.733 -1.49074,-1.5503 0,-0.9765 0.817,-1.6387 2.03274,-1.6387 1.11288,0 1.94188,0.6622 2.0015,1.5904 l -0.72124,0 c -0.0996,-0.5894 -0.58588,-0.9405 -1.30363,-0.9405 -0.76563,0 -1.2715,0.3829 -1.2715,0.9644 0,0.4511 0.31487,0.71 1.10737,0.9131 l 0.60251,0.1591 c 1.19149,0.2994 1.67,0.7618 1.67,1.607 0,1.0562 -0.833,1.7299 -2.1485,1.7299 -1.21963,0 -2.06101,-0.646 -2.13663,-1.6381 l 0.7255,0" /><path
           inkscape:connector-curvature="0"
           id="path106"
           style="fill:#231f20;fill-opacity:1;fill-rule:nonzero;stroke:none"
           d="m 737.51093,4356.2674 c 0.86524,0 1.31937,-0.3511 1.31937,-1.0171 0,-0.6655 -0.46975,-1.0044 -1.38725,-1.0044 l -1.3515,0 0,2.0215 1.41938,0 z m -1.41938,-2.6391 1.14837,0 c 0.86913,0 1.31163,-0.3115 1.31163,-0.9209 0,-0.586 -0.41462,-0.9249 -1.128,-0.9249 l -1.332,0 0,1.8458 z m -0.71687,3.2724 0,-5.7524 2.20024,0 c 1.05663,0 1.70213,0.5541 1.70213,1.4355 0,0.5977 -0.439,1.1401 -0.99212,1.2397 l 0,0.063 c 0.78462,0.1002 1.28312,0.6378 1.28312,1.3994 0,1.0128 -0.7255,1.6143 -1.94913,1.6143 l -2.24424,0" /><path
           inkscape:connector-curvature="0"
           id="path108"
           style="fill:#231f20;fill-opacity:1;fill-rule:nonzero;stroke:none"
           d="m 741.05493,4356.9007 0,-5.7524 0.69774,0 3.12163,4.477 0.0634,0 0,-4.477 0.7095,0 0,5.7524 -0.69775,0 -3.12113,-4.4604 -0.0639,0 0,4.4604 -0.70949,0" /><path
           inkscape:connector-curvature="0"
           id="path110"
           style="fill:#231f20;fill-opacity:1;fill-rule:nonzero;stroke:none"
           d="m 766.95042,4352.6248 c 0,-0.5928 -0.44975,-0.9863 -1.12987,-0.9863 -0.68025,0 -1.12987,0.3935 -1.12987,0.9863 0,0.585 0.45362,0.9746 1.12987,0.9746 0.67625,0 1.12987,-0.3896 1.12987,-0.9746 z m 0.21488,2.689 c 0,-0.6563 -0.54937,-1.1099 -1.34475,-1.1099 -0.79538,0 -1.34475,0.4536 -1.34475,1.1099 0,0.6562 0.54937,1.1099 1.34475,1.1099 0.79538,0 1.34475,-0.4537 1.34475,-1.1099 z m -3.41313,0.052 c 0,-0.7475 0.47313,-1.3286 1.19338,-1.4638 l 0,-0.064 c -0.585,-0.1592 -0.959,-0.6563 -0.959,-1.2808 0,-0.895 0.75975,-1.5317 1.834,-1.5317 1.07425,0 1.834,0.6367 1.834,1.5317 0,0.6285 -0.36625,1.1178 -0.959,1.2808 l 0,0.064 c 0.72025,0.1352 1.19337,0.7163 1.19337,1.4638 0,0.9825 -0.85112,1.6709 -2.06837,1.6709 -1.21725,0 -2.06838,-0.6884 -2.06838,-1.6709 z m -2.312,-3.5082 0,-0.056 -3.07125,0 0,-0.6406 3.79876,0 0,0.6646 -2.55363,5.0757 -0.752,0 2.57812,-5.0439 z m -5.606,1.1455 c 0,-0.7676 -0.56099,-1.3486 -1.29687,-1.3486 -0.73575,0 -1.29688,0.5727 -1.29688,1.3246 0,0.7837 0.52938,1.3247 1.28913,1.3247 0.75975,0 1.30462,-0.541 1.30462,-1.3007 z m -3.23437,2.5297 0.73638,0 c 0.15475,0.5372 0.58837,0.8633 1.15324,0.8633 0.93513,0 1.46388,-0.8271 1.504,-2.3549 l -0.064,0 c -0.28225,0.5571 -0.84325,0.8833 -1.52738,0.8833 -1.09375,0 -1.88575,-0.8077 -1.88575,-1.9214 0,-1.1539 0.8355,-1.9771 2.01325,-1.9771 0.85887,0 1.52337,0.4576 1.88138,1.3047 0.187,0.4375 0.27824,0.9668 0.27824,1.5991 0,1.9732 -0.80324,3.103 -2.2075,3.103 -0.97462,0 -1.69875,-0.5771 -1.88187,-1.5" /><path
           inkscape:connector-curvature="0"
           id="path112"
           style="fill:#231f20;fill-opacity:1;fill-rule:nonzero;stroke:none"
           d="m 769.40643,4354.9119 2.61523,0 0,-0.6504 -2.61523,0 0,0.6504 z" /><path
           inkscape:connector-curvature="0"
           id="path114"
           style="fill:#231f20;fill-opacity:1;fill-rule:nonzero;stroke:none"
           d="m 782.67993,4354.013 c 0,-1.4277 -0.58113,-2.355 -1.47213,-2.355 -0.88675,0 -1.47175,0.9312 -1.47175,2.3512 0,1.4521 0.57663,2.3906 1.47175,2.3906 0.895,0 1.47213,-0.9385 1.47213,-2.3868 z m -3.66413,0 c 0,-1.814 0.85938,-2.9833 2.192,-2.9833 1.33687,0 2.19187,1.1693 2.19187,2.9916 0,1.8335 -0.855,3.003 -2.19187,3.003 -1.3365,0 -2.192,-1.1773 -2.192,-3.0113 z m -2.1845,-1.0102 c 0,-0.7676 -0.561,-1.3486 -1.29687,-1.3486 -0.73588,0 -1.29688,0.5727 -1.29688,1.3246 0,0.7837 0.52925,1.3247 1.289,1.3247 0.75975,0 1.30475,-0.541 1.30475,-1.3007 z m -3.23387,2.5297 0.73574,0 c 0.15538,0.5372 0.58888,0.8633 1.15338,0.8633 0.935,0 1.46387,-0.8271 1.50387,-2.3549 l -0.0639,0 c -0.28225,0.5571 -0.84338,0.8833 -1.52737,0.8833 -1.09375,0 -1.88526,-0.8077 -1.88526,-1.9214 0,-1.1539 0.83488,-1.9771 2.01263,-1.9771 0.85888,0 1.5235,0.4576 1.88137,1.3047 0.187,0.4375 0.27888,0.9668 0.27888,1.5991 0,1.9732 -0.80375,3.103 -2.20812,3.103 -0.9745,0 -1.69863,-0.5771 -1.88125,-1.5" /><path
           inkscape:connector-curvature="0"
           id="path116"
           style="fill:#231f20;fill-opacity:1;fill-rule:nonzero;stroke:none"
           d="m 784.79367,4354.9119 2.61475,0 0,-0.6504 -2.61475,0 0,0.6504 z" /><path
           inkscape:connector-curvature="0"
           id="path118"
           style="fill:#231f20;fill-opacity:1;fill-rule:nonzero;stroke:none"
           d="m 817.65405,4355.075 2.06838,0 0,-3.2495 -0.0474,0 c -0.58887,0.855 -1.337,2.0405 -2.021,3.2022 l 0,0.047 z m 2.06438,0.6368 -2.79638,0 0,-0.6524 c 0.51325,-0.9111 1.42437,-2.3511 2.4585,-3.8985 l 1.03812,0 0,3.9103 0.81538,0 0,0.6406 -0.81538,0 0,1.1894 -0.70024,0 0,-1.1894 z m -4.92913,-0.6324 c 0,-0.7836 -0.52937,-1.3247 -1.28912,-1.3247 -0.75976,0 -1.30463,0.5411 -1.30463,1.3008 0,0.7675 0.5605,1.3482 1.29688,1.3482 0.73587,0 1.29687,-0.5728 1.29687,-1.3243 z m -3.17038,0.648 c -0.18712,-0.4375 -0.27887,-0.9664 -0.27887,-1.5986 0,-1.9733 0.80375,-3.1031 2.208,-3.1031 0.97413,0 1.69825,0.5767 1.88138,1.4996 l -0.73588,0 c -0.15525,-0.5366 -0.58887,-0.8629 -1.15375,-0.8629 -0.93462,0 -1.46388,0.8271 -1.5035,2.3545 l 0.0635,0 c 0.28275,-0.5566 0.84325,-0.8827 1.52788,-0.8827 1.09375,0 1.88524,0.8076 1.88524,1.9213 0,1.1533 -0.83549,1.977 -2.01274,1.977 -0.86325,0 -1.52338,-0.4613 -1.88126,-1.3051 z m -5.18462,-0.6524 2.06888,0 0,-3.2495 -0.0479,0 c -0.58887,0.855 -1.33638,2.0405 -2.021,3.2022 l 0,0.047 z m 2.065,0.6368 -2.79687,0 0,-0.6524 c 0.51312,-0.9111 1.42424,-2.3511 2.4585,-3.8985 l 1.038,0 0,3.9103 0.8155,0 0,0.6406 -0.8155,0 0,1.1894 -0.69963,0 0,-1.1894 z m -7.05812,-2.0684 0.69624,0 c 0.65238,0 1.11375,-0.4219 1.11375,-1.0186 0,-0.5844 -0.44137,-0.9745 -1.10199,-0.9745 -0.66013,0 -1.09375,0.3661 -1.15338,0.9824 l -0.69625,0 c 0.0718,-0.9942 0.78362,-1.607 1.87737,-1.607 1.00251,0 1.80226,0.6685 1.80226,1.504 0,0.684 -0.37788,1.185 -1.00625,1.3363 l 0,0.064 c 0.77975,0.1 1.25287,0.6407 1.25287,1.4243 0,0.9469 -0.88725,1.6826 -2.0205,1.6826 -1.1655,0 -1.96925,-0.6484 -2.021,-1.6309 l 0.69187,0 c 0.064,0.6124 0.58113,1.0064 1.32088,1.0064 0.75575,0 1.29287,-0.4496 1.29287,-1.0781 0,-0.6645 -0.50537,-1.0781 -1.32075,-1.0781 l -0.72799,0 0,-0.6123 z m -4.75838,-1.687 -0.0635,0 -1.45987,1.0581 0,-0.7553 1.52737,-1.0983 0.71188,0 0,5.7403 -0.71588,0 0,-4.9448 z m -4.46825,-0.099 0,-0.056 -3.07075,0 0,-0.6406 3.79875,0 0,0.6646 -2.55363,5.0757 -0.75199,0 2.57762,-5.0439" /><path
           inkscape:connector-curvature="0"
           id="path120"
           style="fill:#231f20;fill-opacity:1;fill-rule:nonzero;stroke:none"
           d="m 822.6208,4354.9119 2.61475,0 0,-0.6504 -2.61475,0 0,0.6504 z" /><path
           inkscape:connector-curvature="0"
           id="path122"
           style="fill:#231f20;fill-opacity:1;fill-rule:nonzero;stroke:none"
           d="m 830.17655,4355.0794 c 0,-0.7836 -0.52937,-1.3247 -1.28913,-1.3247 -0.75975,0 -1.30462,0.5411 -1.30462,1.3008 0,0.7675 0.561,1.3482 1.29688,1.3482 0.73574,0 1.29687,-0.5728 1.29687,-1.3243 z m -3.1705,0.648 c -0.187,-0.4375 -0.27825,-0.9664 -0.27825,-1.5986 0,-1.9733 0.80313,-3.1031 2.2075,-3.1031 0.97463,0 1.69875,0.5767 1.88138,1.4996 l -0.73588,0 c -0.15475,-0.5366 -0.58837,-0.8629 -1.15338,-0.8629 -0.93499,0 -1.46387,0.8271 -1.50387,2.3545 l 0.064,0 c 0.28225,-0.5566 0.84325,-0.8827 1.52738,-0.8827 1.09375,0 1.88524,0.8076 1.88524,1.9213 0,1.1533 -0.83499,1.977 -2.01275,1.977 -0.86324,0 -1.52337,-0.4613 -1.88137,-1.3051" /><path
           inkscape:connector-curvature="0"
           id="path124"
           style="fill:#231f20;fill-opacity:1;fill-rule:nonzero;stroke:none"
           d="m 832.39868,4354.9119 2.61474,0 0,-0.6504 -2.61474,0 0,0.6504 z" /><path
           inkscape:connector-curvature="0"
           id="path126"
           style="fill:#231f20;fill-opacity:1;fill-rule:nonzero;stroke:none"
           d="m 840.0618,4354.013 c 0,-1.4277 -0.58112,-2.355 -1.47225,-2.355 -0.88713,0 -1.47162,0.9312 -1.47162,2.3512 0,1.4521 0.57662,2.3906 1.47162,2.3906 0.895,0 1.47225,-0.9385 1.47225,-2.3868 z m -3.66412,0 c 0,-1.814 0.85937,-2.9833 2.19187,-2.9833 1.336,0 2.19225,1.1693 2.19225,2.9916 0,1.8335 -0.85625,3.003 -2.19225,3.003 -1.33637,0 -2.19187,-1.1773 -2.19187,-3.0113" /></g></g></g></svg>